{
  "type": "panel",
  "name": "Tweet Table",
  "id": "grafana-tweettable-panel",

  "info": {
    "description": "Tweet table panel for grafana",
    "author": {
      "name": "NeoCor6",
      "url": "http://neocor6.com"
    },
    "keywords": ["tweettable", "panel"],
    "version": "1.0.0",
    "updated": "2016-07-28"
  },

  "dependencies": {
    "grafanaVersion": "3.x.x",
    "plugins": [ ]
  }
}

